{
  "routes": [
    {
      "method": "GET",
      "path": "/historia-clinicas",
      "handler": "historia-clinica.find",
      "config": {
        "policies": []
      }
    },
    {
      "method": "GET",
      "path": "/historia-clinicas/count",
      "handler": "historia-clinica.count",
      "config": {
        "policies": []
      }
    },
    {
      "method": "GET",
      "path": "/historia-clinicas/:id",
      "handler": "historia-clinica.findOne",
      "config": {
        "policies": []
      }
    },
    {
      "method": "POST",
      "path": "/historia-clinicas",
      "handler": "historia-clinica.create",
      "config": {
        "policies": []
      }
    },
    {
      "method": "PUT",
      "path": "/historia-clinicas/:id",
      "handler": "historia-clinica.update",
      "config": {
        "policies": []
      }
    },
    {
      "method": "DELETE",
      "path": "/historia-clinicas/:id",
      "handler": "historia-clinica.delete",
      "config": {
        "policies": []
      }
    }
  ]
}
